<?xml version="1.0" encoding="utf-8"?>
<!-- Generator: Adobe Illustrator 21.0.2, SVG Export Plug-In . SVG Version: 6.00 Build 0)  -->
<svg version="1.1" id="Capa_1" xmlns="http://www.w3.org/2000/svg" xmlns:xlink="http://www.w3.org/1999/xlink" x="0px" y="0px"
	 viewBox="0 0 556.8 145.2" style="enable-background:new 0 0 556.8 145.2;" xml:space="preserve">
<style type="text/css">
	.st0{fill:#60A7AE;}
</style>
<g>
	<g>
		<g>
			<path class="st0" d="M109.6,79.8c0,0-1.3,2.8-13.6,4.2c-1.1,0.1-2.1,0.5-2.9,1.2c-1,0.9-2.8,1.9-5.1,1.2
				c-0.5-0.2-0.9-0.7-0.7-1.3c0.4-1.5,1.9-4.4,7.9-6.2c8.3-2.5,11.4,3,19.7-13.3c0,0,5-15.8-10-29.9c0,0,5,6.1-9.1,15.2
				c0,0-4.4,3.7-5.2,9.5c-0.2,1.4-0.8,2.7-2,3.5c-1,0.7-2.2,1.1-3.3,0.1c-0.9-0.9-1-2.2-0.5-3.3c1.3-2.8,4.5-9.5,9.8-14.9
				c6.5-6.8,10.1-8.9,4.1-16.4c-0.9-1.2-2.1-2.2-3.5-2.8c-1.5-0.7-3.7-1.5-6.1-1.5c-4.4,0-6.9-6.4-6.9-6.4s-2-0.3,3.3,11.1
				c0,0,1.9,3.9,1.1,7.8c-0.1,0.6-0.5,1.2-1,1.6l-0.7,0.5c-1.5,1.1-3.7,0.4-4.2-1.4c-0.4-1.4-0.5-3.4,0.1-6.3
				c1.7-8.3-11.1-15-20.5-13.3c0,0,7.2,0,7.2,12.3c0,0.4,0,0.8-0.1,1.2c-0.1,1.1,0,4.4,2.1,9.4c0.3,0.7,0.5,1.4,0.5,2.2
				c0.3,3.7,0.8,14-3,10.6c-0.8-0.7-1.2-1.7-1.1-2.7c0.2-3.4,0.5-12.2-0.9-15.1c-0.3-0.7-0.6-1.4-0.8-2.1c-0.7-3-3-9.9-10.7-12.3
				c-0.5-0.1-0.9-0.2-1.4-0.1c-2.7,0.2-12.7,0.9-18.3-1.8c-2-1,0.6,7.8-3.3,15.8c-3.7,7.7,5.5,17.4,14.5,18c0.9,0.1,1.7,0.4,2.4,1
				l7.5,6.3c0,0,3.6,3.1-1.4,3.1c-4.8,0-19.8,1.8-27.1-21.7c-0.3-0.9-1.6-0.9-1.9,0c-2.4,7.3-7,26.3,6,35.9c0,0,7.1,4.7,16.9-0.9
				c0.6-0.3,1.2-0.5,1.9-0.6c3-0.2,11.3-0.2,9.2,5.1c0,0-2.6,7.6-20.7,1.7c-0.8-0.3-1.6-0.5-2.3-0.9c-1.3-0.7-4.7-1.8-9.8,0.6
				c-1,0.5-2.1,0.4-3-0.2l-1-0.7c0,0-0.6,1.9,3.3,5.5c3.9,3.6,3.1,12.5,15.3,18.6c0,0,2,1.6,18.3-6.3c0.2-0.1,0.3-0.1,0.5-0.2
				c1.7-0.4,10.4-2.5,9.9,1.5c-0.6,4.4-10.8,3.9-10.8,3.9s-3.6,0-8.3,3.3c-4.7,3.3-4.7,3.3-4.7,3.3s13.3,9.1,22.2,7.8
				c6.3-1,10.3-5.2,12.2-7.5c1.1-1.5,2.7-2.5,4.4-3.2c2.6-1,5.8-1.5,5.3,2.5c-0.5,4.2-3.9,7.2-9.4,8.9c-7.4,2.3-7.8,6.2-7.8,6.2
				l6.7-0.5c1.7-0.1,3.5-0.1,5.2,0.2c3.3,0.6,6.6,0.3,9.7-0.9c3-1.2,6.1-3.3,8.1-7.2c1.4-2.9,1.3-6.3-0.4-9
				c-1.1-1.8-2.8-4.1-5.6-6.9l-3.7-4.3c0,0-2.1-2-5-5.4C70.6,73.4,56.4,56.5,45.4,38.4l29.7,37.5c0,0,13.9,17.6,22,24.4
				c0.9,0.8,2.1,1,3.2,0.5c1.3-0.5,3.5-0.6,7.4,1.4c0,0,11.6,2.9,9.8-11.7c-0.1-0.7,0-1.3,0.2-2c0.6-2,1.8-7-0.1-12.7
				c-0.4-1.2-0.3-2.4,0.2-3.5c0.3-0.7,0.7-1.2,1.3-1.4C120.4,70.6,115.7,66.8,109.6,79.8z M52.2,99.2c-1.8,0.3-4.2,1.6-4.2,1.6
				c-5.8,3.8-8.8,1.2-8.8,1.2c-5-6,6.1-5.9,6.1-5.9c4.5-0.6,6.6,0.2,7.6,1.2C53.4,98,53.1,99.1,52.2,99.2z M76.9,97.7
				c3.6-2.7,7.5,5.5,2.7,4.3c-3.1-0.8-5.4-0.5-6.6-0.3c-0.8,0.2-1.7-0.1-2.2-0.7C69.6,99.6,73.8,100,76.9,97.7z M53.2,35.3
				c-3.6,0.9-10.5-5.9-10.5-5.9c0.9-5,5.3-3.1,6.9-2.3c0.4,0.2,0.7,0.3,1.1,0.4c1.3,0.3,4.1,1.2,4.7,3.2
				C56.2,33.3,56.8,34.4,53.2,35.3z M75.8,54.5c-0.3,0.6-1.3,0.3-1.2-0.4c0.1-1.8,0.1-4.4-0.4-7.2c0,0-2.3-12.2,2.7-5.2
				c0,0,1.5,4.1,0.9,7.6C77.5,51,76.6,53,75.8,54.5z M84.8,71.2c0,0,0,4.2-4.6,6.5c0,0-3.2,1.2-2.3-3.2c0.9-4.4,3.3-8.5,5.9-7
				C85.1,68.3,84.8,71.2,84.8,71.2z M107.9,98.3c-2.1-0.6-6.7-1.4-7.1-4.4c0,0,0.3-4,8.5-0.9C117.5,96,110,98.9,107.9,98.3z"/>
		</g>
		<path class="st0" d="M100.6,104.8c0,0-0.7-3.1,2.7-0.1c6.2,5.5,19.1,19,25.6,20.1c0.3,0,0.3,0.4,0,0.5l-3.9,0.7
			c-4.1,0.7-8.3-0.9-10.9-4.2L100.6,104.8z"/>
	</g>
	<g>
		<path class="st0" d="M187.2,18.3V50c-4-4.4-11.4-6.7-20.4-6.7c-18.8,0-28.3,13.4-28.3,39.7c0,2.5,0.1,5.1,0.2,7.7
			c1.1,23.4,7.6,35.4,19.5,35.4c0.4,0,0.9,0.2,1.3,0.2h37.7v-108H187.2z M187.6,117.3h-25.9c-9.2,0-14.1-9.2-14.5-26.8
			c0-1.9-0.1-3.8-0.1-5.5c0-21.6,6.3-32.6,18.7-32.6h1.2c11.4,0,18.3,6.3,20.4,18.5L187.6,117.3z"/>
		<path class="st0" d="M317.1,43.3h-0.3c-9,0-15.6,2.2-20.6,6.6v-5.6h-9v82h8.9l0-55.5c2.2-12.3,9.1-18.6,20.6-18.6l1.1-0.1
			c10.7,1.2,16.3,10.8,16.3,28.7c0,1.3,0.2,45.5,0.2,45.5h9c0,0,0-45.6,0-46.7C343.3,55.5,334.5,43.3,317.1,43.3z"/>
		<path class="st0" d="M407.2,18.3V50c-5-4.4-11.8-6.7-20.8-6.7c-18.8,0-28.5,13.4-28.5,39.7c0,2.4,0,5,0.1,7.7
			c1.1,23.4,7.6,35.4,19.4,35.4c0.4,0,0.8,0.2,1.3,0.2h37.5v-108H407.2z M406.9,117.3H381c-9.2,0-14.1-9.2-14.5-26.8
			c0-1.8-0.1-3.6-0.1-5.5c0-21.6,6.3-32.6,18.7-32.6h1.2c11.4,0,18.3,6.3,20.4,18.5L406.9,117.3z"/>
		<path class="st0" d="M488.2,68.9c-2.6-17-12.5-25.9-29.5-26.3c-6.7,0-12.4,1.7-16.8,5l-0.9,0.6l7.7,6l0.5-0.4
			c2.6-1.8,5.7-2.7,9.3-2.7c11.8,0.3,18.6,6.9,20.2,19.4l0,3c-4.6-4.4-11.3-6.7-20.3-6.7c-18.2,0-27.3,9.4-27.3,27.9v1.9
			c0,19.4,10.5,29.6,30,29.6h27L488.2,68.9z M479.2,94v22.4h-18.8c-12.7,0-19.3-6.7-20.1-19.9c0-0.8-0.1-1.7-0.1-2.5
			c0-11.9,6.2-17.9,18.3-18.2C470.1,75.7,477.2,81.8,479.2,94z"/>
		<path class="st0" d="M242.7,42.4c-19,0-29.5,14-31.1,41.8c0.5,28.5,10.7,42.3,31.1,42.3c16,0,26.8-10.7,30.3-30.2l0.1-0.6l-9.4,0
			l-0.1,0.4c-2.6,14.3-9.7,21.6-21,21.6c-14.7,0-21.8-10.2-22.4-32.5c0,0,0,0.1,0,0.1h52.8h0.5l0.1-1.7
			C272.1,56,262,42.4,242.7,42.4z M240.6,53.4c0.6-0.1,1.3-0.2,2-0.2c0.6,0,1.6,0.1,2.2,0.2c10.2,1,16.8,8.9,19.1,23.9h-42.6
			C223.8,62.3,230.5,54.4,240.6,53.4z"/>
	</g>
	<g>
		<path class="st0" d="M495.9,122.7c0-0.5,0.1-1,0.2-1.3c0.1-0.4,0.3-0.7,0.6-0.9c0.2-0.2,0.5-0.4,0.8-0.5c0.3-0.1,0.7-0.2,1-0.2
			c0.4,0,0.7,0.1,1,0.2c0.3,0.1,0.6,0.3,0.8,0.5c0.2,0.2,0.4,0.5,0.6,0.9c0.1,0.4,0.2,0.8,0.2,1.3c0,0.5-0.1,0.9-0.2,1.3
			c-0.1,0.4-0.3,0.7-0.6,0.9c-0.2,0.2-0.5,0.4-0.8,0.5s-0.7,0.2-1,0.2c-0.4,0-0.7-0.1-1-0.2c-0.3-0.1-0.6-0.3-0.8-0.5
			c-0.2-0.2-0.4-0.5-0.6-0.9C496,123.6,495.9,123.2,495.9,122.7z"/>
		<path class="st0" d="M516.7,125.4c-3.2,0-5.8-1-7.6-3c-1.8-2-2.7-4.8-2.7-8.6c0-3.8,0.9-6.7,2.7-8.7c1.8-2,4.4-3.1,7.8-3.1
			c1.1,0,2.2,0.1,3.3,0.3c1.1,0.2,2,0.5,2.7,0.9l-1.1,3.1c-1.9-0.7-3.5-1.1-4.9-1.1c-2.3,0-3.9,0.7-5,2.1c-1.1,1.4-1.6,3.6-1.6,6.4
			c0,2.7,0.5,4.8,1.6,6.2c1.1,1.4,2.7,2.2,4.8,2.2c2,0,3.9-0.4,5.8-1.3v3.3C521,125,519,125.4,516.7,125.4z"/>
		<path class="st0" d="M531.6,125h-3.7V93.1h3.7V125z"/>
	</g>
</g>
</svg>
